20240521_SV_adder/20240521_SV_Adder.sim/sim_1/behav/xsim/simulate.log
Time resolution is 1 ps
[GEN] a:15, b: 8, carry:x, sum: x
[DRV] a:15, b: 8, carry:x, sum: x
[MON] a:15, b: 8, carry:1, sum: 7
[SCB] a:15, b: 8, carry:1, sum: 7
 --> PASS! 15 +  8 = 23
[GEN] a: 3, b: 5, carry:x, sum: x
[DRV] a: 3, b: 5, carry:x, sum: x
[MON] a: 3, b: 5, carry:0, sum: 8
[SCB] a: 3, b: 5, carry:0, sum: 8
 --> PASS!  3 +  5 =  8
[GEN] a:11, b: 8, carry:x, sum: x
[DRV] a:11, b: 8, carry:x, sum: x
[MON] a:11, b: 8, carry:1, sum: 3
[SCB] a:11, b: 8, carry:1, sum: 3
 --> PASS! 11 +  8 = 19
[GEN] a:13, b:10, carry:x, sum: x
[DRV] a:13, b:10, carry:x, sum: x
[MON] a:13, b:10, carry:1, sum: 7
[SCB] a:13, b:10, carry:1, sum: 7
 --> PASS! 13 + 10 = 23
[GEN] a: 0, b: 1, carry:x, sum: x
[DRV] a: 0, b: 1, carry:x, sum: x
[MON] a: 0, b: 1, carry:0, sum: 1
[SCB] a: 0, b: 1, carry:0, sum: 1
 --> PASS!  0 +  1 =  1
[GEN] a:15, b:11, carry:x, sum: x
[DRV] a:15, b:11, carry:x, sum: x
[MON] a:15, b:11, carry:1, sum:10
[SCB] a:15, b:11, carry:1, sum:10
 --> PASS! 15 + 11 = 26
[GEN] a: 9, b:13, carry:x, sum: x
[DRV] a: 9, b:13, carry:x, sum: x
[MON] a: 9, b:13, carry:1, sum: 6
[SCB] a: 9, b:13, carry:1, sum: 6
 --> PASS!  9 + 13 = 22
[GEN] a: 5, b:10, carry:x, sum: x
[DRV] a: 5, b:10, carry:x, sum: x
[MON] a: 5, b:10, carry:0, sum:15
[SCB] a: 5, b:10, carry:0, sum:15
 --> PASS!  5 + 10 = 15
[GEN] a:14, b: 5, carry:x, sum: x
[DRV] a:14, b: 5, carry:x, sum: x
[MON] a:14, b: 5, carry:1, sum: 3
[SCB] a:14, b: 5, carry:1, sum: 3
 --> PASS! 14 +  5 = 19
[GEN] a: 5, b: 7, carry:x, sum: x
[DRV] a: 5, b: 7, carry:x, sum: x
[MON] a: 5, b: 7, carry:0, sum:12
[SCB] a: 5, b: 7, carry:0, sum:12
 --> PASS!  5 +  7 = 12
[GEN] a: 2, b:11, carry:x, sum: x
[DRV] a: 2, b:11, carry:x, sum: x
[MON] a: 2, b:11, carry:0, sum:13
[SCB] a: 2, b:11, carry:0, sum:13
 --> PASS!  2 + 11 = 13
[GEN] a: 1, b: 0, carry:x, sum: x
[DRV] a: 1, b: 0, carry:x, sum: x
[MON] a: 1, b: 0, carry:0, sum: 1
[SCB] a: 1, b: 0, carry:0, sum: 1
 --> PASS!  1 +  0 =  1
[GEN] a: 0, b: 7, carry:x, sum: x
[DRV] a: 0, b: 7, carry:x, sum: x
[MON] a: 0, b: 7, carry:0, sum: 7
[SCB] a: 0, b: 7, carry:0, sum: 7
 --> PASS!  0 +  7 =  7
[GEN] a: 7, b: 2, carry:x, sum: x
[DRV] a: 7, b: 2, carry:x, sum: x
[MON] a: 7, b: 2, carry:0, sum: 9
[SCB] a: 7, b: 2, carry:0, sum: 9
 --> PASS!  7 +  2 =  9
[GEN] a: 2, b: 9, carry:x, sum: x
[DRV] a: 2, b: 9, carry:x, sum: x
[MON] a: 2, b: 9, carry:0, sum:11
[SCB] a: 2, b: 9, carry:0, sum:11
 --> PASS!  2 +  9 = 11
[GEN] a: 2, b: 2, carry:x, sum: x
[DRV] a: 2, b: 2, carry:x, sum: x
[MON] a: 2, b: 2, carry:0, sum: 4
[SCB] a: 2, b: 2, carry:0, sum: 4
 --> PASS!  2 +  2 =  4
[GEN] a: 0, b: 9, carry:x, sum: x
[DRV] a: 0, b: 9, carry:x, sum: x
[MON] a: 0, b: 9, carry:0, sum: 9
[SCB] a: 0, b: 9, carry:0, sum: 9
 --> PASS!  0 +  9 =  9
[GEN] a: 4, b: 2, carry:x, sum: x
[DRV] a: 4, b: 2, carry:x, sum: x
[MON] a: 4, b: 2, carry:0, sum: 6
[SCB] a: 4, b: 2, carry:0, sum: 6
 --> PASS!  4 +  2 =  6
[GEN] a: 2, b: 6, carry:x, sum: x
[DRV] a: 2, b: 6, carry:x, sum: x
[MON] a: 2, b: 6, carry:0, sum: 8
[SCB] a: 2, b: 6, carry:0, sum: 8
 --> PASS!  2 +  6 =  8
[GEN] a: 4, b: 2, carry:x, sum: x
[DRV] a: 4, b: 2, carry:x, sum: x
[MON] a: 4, b: 2, carry:0, sum: 6
[SCB] a: 4, b: 2, carry:0, sum: 6
 --> PASS!  4 +  2 =  6
[GEN] a:15, b: 8, carry:x, sum: x
[DRV] a:15, b: 8, carry:x, sum: x
[MON] a:15, b: 8, carry:1, sum: 7
[SCB] a:15, b: 8, carry:1, sum: 7
 --> PASS! 15 +  8 = 23
[GEN] a: 4, b: 2, carry:x, sum: x
[DRV] a: 4, b: 2, carry:x, sum: x
[MON] a: 4, b: 2, carry:0, sum: 6
[SCB] a: 4, b: 2, carry:0, sum: 6
 --> PASS!  4 +  2 =  6
[GEN] a:14, b: 8, carry:x, sum: x
[DRV] a:14, b: 8, carry:x, sum: x
[MON] a:14, b: 8, carry:1, sum: 6
[SCB] a:14, b: 8, carry:1, sum: 6
 --> PASS! 14 +  8 = 22
[GEN] a: 4, b:13, carry:x, sum: x
[DRV] a: 4, b:13, carry:x, sum: x
[MON] a: 4, b:13, carry:1, sum: 1
[SCB] a: 4, b:13, carry:1, sum: 1
 --> PASS!  4 + 13 = 17
[GEN] a: 0, b: 9, carry:x, sum: x
[DRV] a: 0, b: 9, carry:x, sum: x
[MON] a: 0, b: 9, carry:0, sum: 9
[SCB] a: 0, b: 9, carry:0, sum: 9
 --> PASS!  0 +  9 =  9
[GEN] a:15, b:14, carry:x, sum: x
[DRV] a:15, b:14, carry:x, sum: x
[MON] a:15, b:14, carry:1, sum:13
[SCB] a:15, b:14, carry:1, sum:13
 --> PASS! 15 + 14 = 29
[GEN] a: 1, b: 4, carry:x, sum: x
[DRV] a: 1, b: 4, carry:x, sum: x
[MON] a: 1, b: 4, carry:0, sum: 5
[SCB] a: 1, b: 4, carry:0, sum: 5
 --> PASS!  1 +  4 =  5
[GEN] a:12, b: 2, carry:x, sum: x
[DRV] a:12, b: 2, carry:x, sum: x
[MON] a:12, b: 2, carry:0, sum:14
[SCB] a:12, b: 2, carry:0, sum:14
 --> PASS! 12 +  2 = 14
[GEN] a:13, b:11, carry:x, sum: x
[DRV] a:13, b:11, carry:x, sum: x
[MON] a:13, b:11, carry:1, sum: 8
[SCB] a:13, b:11, carry:1, sum: 8
 --> PASS! 13 + 11 = 24
[GEN] a: 0, b:14, carry:x, sum: x
[DRV] a: 0, b:14, carry:x, sum: x
[MON] a: 0, b:14, carry:0, sum:14
[SCB] a: 0, b:14, carry:0, sum:14
 --> PASS!  0 + 14 = 14
[GEN] a:15, b:12, carry:x, sum: x
[DRV] a:15, b:12, carry:x, sum: x
[MON] a:15, b:12, carry:1, sum:11
[SCB] a:15, b:12, carry:1, sum:11
 --> PASS! 15 + 12 = 27
[GEN] a: 0, b:12, carry:x, sum: x
[DRV] a: 0, b:12, carry:x, sum: x
[MON] a: 0, b:12, carry:0, sum:12
[SCB] a: 0, b:12, carry:0, sum:12
 --> PASS!  0 + 12 = 12
[GEN] a: 8, b: 1, carry:x, sum: x
[DRV] a: 8, b: 1, carry:x, sum: x
[MON] a: 8, b: 1, carry:0, sum: 9
[SCB] a: 8, b: 1, carry:0, sum: 9
 --> PASS!  8 +  1 =  9
[GEN] a:11, b: 7, carry:x, sum: x
[DRV] a:11, b: 7, carry:x, sum: x
[MON] a:11, b: 7, carry:1, sum: 2
[SCB] a:11, b: 7, carry:1, sum: 2
 --> PASS! 11 +  7 = 18
[GEN] a:13, b:11, carry:x, sum: x
[DRV] a:13, b:11, carry:x, sum: x
[MON] a:13, b:11, carry:1, sum: 8
[SCB] a:13, b:11, carry:1, sum: 8
 --> PASS! 13 + 11 = 24
[GEN] a: 4, b: 5, carry:x, sum: x
[DRV] a: 4, b: 5, carry:x, sum: x
[MON] a: 4, b: 5, carry:0, sum: 9
[SCB] a: 4, b: 5, carry:0, sum: 9
 --> PASS!  4 +  5 =  9
[GEN] a:12, b:15, carry:x, sum: x
[DRV] a:12, b:15, carry:x, sum: x
[MON] a:12, b:15, carry:1, sum:11
[SCB] a:12, b:15, carry:1, sum:11
 --> PASS! 12 + 15 = 27
[GEN] a:13, b:10, carry:x, sum: x
[DRV] a:13, b:10, carry:x, sum: x
[MON] a:13, b:10, carry:1, sum: 7
[SCB] a:13, b:10, carry:1, sum: 7
 --> PASS! 13 + 10 = 23
[GEN] a:10, b: 1, carry:x, sum: x
[DRV] a:10, b: 1, carry:x, sum: x
[MON] a:10, b: 1, carry:0, sum:11
[SCB] a:10, b: 1, carry:0, sum:11
 --> PASS! 10 +  1 = 11
[GEN] a:15, b: 7, carry:x, sum: x
[DRV] a:15, b: 7, carry:x, sum: x
[MON] a:15, b: 7, carry:1, sum: 6
[SCB] a:15, b: 7, carry:1, sum: 6
 --> PASS! 15 +  7 = 22
[GEN] a: 0, b:12, carry:x, sum: x
[DRV] a: 0, b:12, carry:x, sum: x
[MON] a: 0, b:12, carry:0, sum:12
[SCB] a: 0, b:12, carry:0, sum:12
 --> PASS!  0 + 12 = 12
[GEN] a: 1, b:10, carry:x, sum: x
[DRV] a: 1, b:10, carry:x, sum: x
[MON] a: 1, b:10, carry:0, sum:11
[SCB] a: 1, b:10, carry:0, sum:11
 --> PASS!  1 + 10 = 11
[GEN] a:13, b: 0, carry:x, sum: x
[DRV] a:13, b: 0, carry:x, sum: x
[MON] a:13, b: 0, carry:0, sum:13
[SCB] a:13, b: 0, carry:0, sum:13
 --> PASS! 13 +  0 = 13
[GEN] a: 1, b:13, carry:x, sum: x
[DRV] a: 1, b:13, carry:x, sum: x
[MON] a: 1, b:13, carry:0, sum:14
[SCB] a: 1, b:13, carry:0, sum:14
 --> PASS!  1 + 13 = 14
[GEN] a:13, b: 2, carry:x, sum: x
[DRV] a:13, b: 2, carry:x, sum: x
[MON] a:13, b: 2, carry:0, sum:15
[SCB] a:13, b: 2, carry:0, sum:15
 --> PASS! 13 +  2 = 15
[GEN] a: 8, b:10, carry:x, sum: x
[DRV] a: 8, b:10, carry:x, sum: x
[MON] a: 8, b:10, carry:1, sum: 2
[SCB] a: 8, b:10, carry:1, sum: 2
 --> PASS!  8 + 10 = 18
[GEN] a: 3, b: 9, carry:x, sum: x
[DRV] a: 3, b: 9, carry:x, sum: x
[MON] a: 3, b: 9, carry:0, sum:12
[SCB] a: 3, b: 9, carry:0, sum:12
 --> PASS!  3 +  9 = 12
[GEN] a: 8, b: 0, carry:x, sum: x
[DRV] a: 8, b: 0, carry:x, sum: x
[MON] a: 8, b: 0, carry:0, sum: 8
[SCB] a: 8, b: 0, carry:0, sum: 8
 --> PASS!  8 +  0 =  8
[GEN] a:12, b: 0, carry:x, sum: x
[DRV] a:12, b: 0, carry:x, sum: x
[MON] a:12, b: 0, carry:0, sum:12
[SCB] a:12, b: 0, carry:0, sum:12
 --> PASS! 12 +  0 = 12
[GEN] a:10, b:15, carry:x, sum: x
[DRV] a:10, b:15, carry:x, sum: x
[MON] a:10, b:15, carry:1, sum: 9
[SCB] a:10, b:15, carry:1, sum: 9
 --> PASS! 10 + 15 = 25
[GEN] a: 9, b: 2, carry:x, sum: x
[DRV] a: 9, b: 2, carry:x, sum: x
[MON] a: 9, b: 2, carry:0, sum:11
[SCB] a: 9, b: 2, carry:0, sum:11
 --> PASS!  9 +  2 = 11
[GEN] a:15, b: 5, carry:x, sum: x
[DRV] a:15, b: 5, carry:x, sum: x
[MON] a:15, b: 5, carry:1, sum: 4
[SCB] a:15, b: 5, carry:1, sum: 4
 --> PASS! 15 +  5 = 20
[GEN] a: 2, b: 9, carry:x, sum: x
[DRV] a: 2, b: 9, carry:x, sum: x
[MON] a: 2, b: 9, carry:0, sum:11
[SCB] a: 2, b: 9, carry:0, sum:11
 --> PASS!  2 +  9 = 11
[GEN] a: 4, b:12, carry:x, sum: x
[DRV] a: 4, b:12, carry:x, sum: x
[MON] a: 4, b:12, carry:1, sum: 0
[SCB] a: 4, b:12, carry:1, sum: 0
 --> PASS!  4 + 12 = 16
[GEN] a:12, b: 3, carry:x, sum: x
[DRV] a:12, b: 3, carry:x, sum: x
[MON] a:12, b: 3, carry:0, sum:15
[SCB] a:12, b: 3, carry:0, sum:15
 --> PASS! 12 +  3 = 15
[GEN] a: 1, b:14, carry:x, sum: x
[DRV] a: 1, b:14, carry:x, sum: x
[MON] a: 1, b:14, carry:0, sum:15
[SCB] a: 1, b:14, carry:0, sum:15
 --> PASS!  1 + 14 = 15
[GEN] a:13, b: 6, carry:x, sum: x
[DRV] a:13, b: 6, carry:x, sum: x
[MON] a:13, b: 6, carry:1, sum: 3
[SCB] a:13, b: 6, carry:1, sum: 3
 --> PASS! 13 +  6 = 19
[GEN] a:10, b: 9, carry:x, sum: x
[DRV] a:10, b: 9, carry:x, sum: x
[MON] a:10, b: 9, carry:1, sum: 3
[SCB] a:10, b: 9, carry:1, sum: 3
 --> PASS! 10 +  9 = 19
[GEN] a: 9, b:12, carry:x, sum: x
[DRV] a: 9, b:12, carry:x, sum: x
[MON] a: 9, b:12, carry:1, sum: 5
[SCB] a: 9, b:12, carry:1, sum: 5
 --> PASS!  9 + 12 = 21
[GEN] a: 7, b: 6, carry:x, sum: x
[DRV] a: 7, b: 6, carry:x, sum: x
[MON] a: 7, b: 6, carry:0, sum:13
[SCB] a: 7, b: 6, carry:0, sum:13
 --> PASS!  7 +  6 = 13
[GEN] a: 2, b: 2, carry:x, sum: x
[DRV] a: 2, b: 2, carry:x, sum: x
[MON] a: 2, b: 2, carry:0, sum: 4
[SCB] a: 2, b: 2, carry:0, sum: 4
 --> PASS!  2 +  2 =  4
[GEN] a:15, b:11, carry:x, sum: x
[DRV] a:15, b:11, carry:x, sum: x
[MON] a:15, b:11, carry:1, sum:10
[SCB] a:15, b:11, carry:1, sum:10
 --> PASS! 15 + 11 = 26
[GEN] a:14, b: 7, carry:x, sum: x
[DRV] a:14, b: 7, carry:x, sum: x
[MON] a:14, b: 7, carry:1, sum: 5
[SCB] a:14, b: 7, carry:1, sum: 5
 --> PASS! 14 +  7 = 21
[GEN] a: 2, b: 0, carry:x, sum: x
[DRV] a: 2, b: 0, carry:x, sum: x
[MON] a: 2, b: 0, carry:0, sum: 2
[SCB] a: 2, b: 0, carry:0, sum: 2
 --> PASS!  2 +  0 =  2
[GEN] a: 9, b: 1, carry:x, sum: x
[DRV] a: 9, b: 1, carry:x, sum: x
[MON] a: 9, b: 1, carry:0, sum:10
[SCB] a: 9, b: 1, carry:0, sum:10
 --> PASS!  9 +  1 = 10
[GEN] a:11, b: 7, carry:x, sum: x
[DRV] a:11, b: 7, carry:x, sum: x
[MON] a:11, b: 7, carry:1, sum: 2
[SCB] a:11, b: 7, carry:1, sum: 2
 --> PASS! 11 +  7 = 18
[GEN] a: 8, b:13, carry:x, sum: x
[DRV] a: 8, b:13, carry:x, sum: x
[MON] a: 8, b:13, carry:1, sum: 5
[SCB] a: 8, b:13, carry:1, sum: 5
 --> PASS!  8 + 13 = 21
[GEN] a: 7, b: 1, carry:x, sum: x
[DRV] a: 7, b: 1, carry:x, sum: x
[MON] a: 7, b: 1, carry:0, sum: 8
[SCB] a: 7, b: 1, carry:0, sum: 8
 --> PASS!  7 +  1 =  8
[GEN] a:15, b: 2, carry:x, sum: x
[DRV] a:15, b: 2, carry:x, sum: x
[MON] a:15, b: 2, carry:1, sum: 1
[SCB] a:15, b: 2, carry:1, sum: 1
 --> PASS! 15 +  2 = 17
[GEN] a: 8, b: 7, carry:x, sum: x
[DRV] a: 8, b: 7, carry:x, sum: x
[MON] a: 8, b: 7, carry:0, sum:15
[SCB] a: 8, b: 7, carry:0, sum:15
 --> PASS!  8 +  7 = 15
[GEN] a: 0, b:15, carry:x, sum: x
[DRV] a: 0, b:15, carry:x, sum: x
[MON] a: 0, b:15, carry:0, sum:15
[SCB] a: 0, b:15, carry:0, sum:15
 --> PASS!  0 + 15 = 15
[GEN] a: 9, b:15, carry:x, sum: x
[DRV] a: 9, b:15, carry:x, sum: x
[MON] a: 9, b:15, carry:1, sum: 8
[SCB] a: 9, b:15, carry:1, sum: 8
 --> PASS!  9 + 15 = 24
[GEN] a: 2, b: 1, carry:x, sum: x
[DRV] a: 2, b: 1, carry:x, sum: x
[MON] a: 2, b: 1, carry:0, sum: 3
[SCB] a: 2, b: 1, carry:0, sum: 3
 --> PASS!  2 +  1 =  3
[GEN] a: 6, b: 2, carry:x, sum: x
[DRV] a: 6, b: 2, carry:x, sum: x
[MON] a: 6, b: 2, carry:0, sum: 8
[SCB] a: 6, b: 2, carry:0, sum: 8
 --> PASS!  6 +  2 =  8
[GEN] a: 1, b:15, carry:x, sum: x
[DRV] a: 1, b:15, carry:x, sum: x
[MON] a: 1, b:15, carry:1, sum: 0
[SCB] a: 1, b:15, carry:1, sum: 0
 --> PASS!  1 + 15 = 16
[GEN] a: 1, b: 3, carry:x, sum: x
[DRV] a: 1, b: 3, carry:x, sum: x
[MON] a: 1, b: 3, carry:0, sum: 4
[SCB] a: 1, b: 3, carry:0, sum: 4
 --> PASS!  1 +  3 =  4
[GEN] a: 1, b: 7, carry:x, sum: x
[DRV] a: 1, b: 7, carry:x, sum: x
[MON] a: 1, b: 7, carry:0, sum: 8
[SCB] a: 1, b: 7, carry:0, sum: 8
 --> PASS!  1 +  7 =  8
[GEN] a: 5, b: 2, carry:x, sum: x
[DRV] a: 5, b: 2, carry:x, sum: x
[MON] a: 5, b: 2, carry:0, sum: 7
[SCB] a: 5, b: 2, carry:0, sum: 7
 --> PASS!  5 +  2 =  7
[GEN] a: 7, b: 6, carry:x, sum: x
[DRV] a: 7, b: 6, carry:x, sum: x
[MON] a: 7, b: 6, carry:0, sum:13
[SCB] a: 7, b: 6, carry:0, sum:13
 --> PASS!  7 +  6 = 13
[GEN] a: 5, b: 8, carry:x, sum: x
[DRV] a: 5, b: 8, carry:x, sum: x
[MON] a: 5, b: 8, carry:0, sum:13
[SCB] a: 5, b: 8, carry:0, sum:13
 --> PASS!  5 +  8 = 13
[GEN] a:13, b:10, carry:x, sum: x
[DRV] a:13, b:10, carry:x, sum: x
[MON] a:13, b:10, carry:1, sum: 7
[SCB] a:13, b:10, carry:1, sum: 7
 --> PASS! 13 + 10 = 23
[GEN] a:10, b: 4, carry:x, sum: x
[DRV] a:10, b: 4, carry:x, sum: x
[MON] a:10, b: 4, carry:0, sum:14
[SCB] a:10, b: 4, carry:0, sum:14
 --> PASS! 10 +  4 = 14
[GEN] a: 0, b:15, carry:x, sum: x
[DRV] a: 0, b:15, carry:x, sum: x
[MON] a: 0, b:15, carry:0, sum:15
[SCB] a: 0, b:15, carry:0, sum:15
 --> PASS!  0 + 15 = 15
[GEN] a:12, b:13, carry:x, sum: x
[DRV] a:12, b:13, carry:x, sum: x
[MON] a:12, b:13, carry:1, sum: 9
[SCB] a:12, b:13, carry:1, sum: 9
 --> PASS! 12 + 13 = 25
[GEN] a: 9, b: 6, carry:x, sum: x
[DRV] a: 9, b: 6, carry:x, sum: x
[MON] a: 9, b: 6, carry:0, sum:15
[SCB] a: 9, b: 6, carry:0, sum:15
 --> PASS!  9 +  6 = 15
[GEN] a: 2, b: 9, carry:x, sum: x
[DRV] a: 2, b: 9, carry:x, sum: x
[MON] a: 2, b: 9, carry:0, sum:11
[SCB] a: 2, b: 9, carry:0, sum:11
 --> PASS!  2 +  9 = 11
[GEN] a: 5, b:14, carry:x, sum: x
[DRV] a: 5, b:14, carry:x, sum: x
[MON] a: 5, b:14, carry:1, sum: 3
[SCB] a: 5, b:14, carry:1, sum: 3
 --> PASS!  5 + 14 = 19
[GEN] a: 6, b:14, carry:x, sum: x
[DRV] a: 6, b:14, carry:x, sum: x
[MON] a: 6, b:14, carry:1, sum: 4
[SCB] a: 6, b:14, carry:1, sum: 4
 --> PASS!  6 + 14 = 20
[GEN] a: 5, b: 8, carry:x, sum: x
[DRV] a: 5, b: 8, carry:x, sum: x
[MON] a: 5, b: 8, carry:0, sum:13
[SCB] a: 5, b: 8, carry:0, sum:13
 --> PASS!  5 +  8 = 13
[GEN] a: 7, b:10, carry:x, sum: x
[DRV] a: 7, b:10, carry:x, sum: x
[MON] a: 7, b:10, carry:1, sum: 1
[SCB] a: 7, b:10, carry:1, sum: 1
 --> PASS!  7 + 10 = 17
[GEN] a: 7, b:14, carry:x, sum: x
[DRV] a: 7, b:14, carry:x, sum: x
[MON] a: 7, b:14, carry:1, sum: 5
[SCB] a: 7, b:14, carry:1, sum: 5
 --> PASS!  7 + 14 = 21
[GEN] a: 9, b:12, carry:x, sum: x
[DRV] a: 9, b:12, carry:x, sum: x
[MON] a: 9, b:12, carry:1, sum: 5
[SCB] a: 9, b:12, carry:1, sum: 5
 --> PASS!  9 + 12 = 21
[GEN] a: 6, b: 0, carry:x, sum: x
[DRV] a: 6, b: 0, carry:x, sum: x
[MON] a: 6, b: 0, carry:0, sum: 6
[SCB] a: 6, b: 0, carry:0, sum: 6
 --> PASS!  6 +  0 =  6
[GEN] a: 6, b:13, carry:x, sum: x
[DRV] a: 6, b:13, carry:x, sum: x
[MON] a: 6, b:13, carry:1, sum: 3
[SCB] a: 6, b:13, carry:1, sum: 3
 --> PASS!  6 + 13 = 19
[GEN] a:14, b:15, carry:x, sum: x
[DRV] a:14, b:15, carry:x, sum: x
[MON] a:14, b:15, carry:1, sum:13
[SCB] a:14, b:15, carry:1, sum:13
 --> PASS! 14 + 15 = 29
[GEN] a: 9, b: 5, carry:x, sum: x
[DRV] a: 9, b: 5, carry:x, sum: x
[MON] a: 9, b: 5, carry:0, sum:14
[SCB] a: 9, b: 5, carry:0, sum:14
 --> PASS!  9 +  5 = 14
[GEN] a: 0, b: 0, carry:x, sum: x
[DRV] a: 0, b: 0, carry:x, sum: x
[MON] a: 0, b: 0, carry:0, sum: 0
[SCB] a: 0, b: 0, carry:0, sum: 0
 --> PASS!  0 +  0 =  0
[GEN] a: 2, b:14, carry:x, sum: x
[DRV] a: 2, b:14, carry:x, sum: x
[MON] a: 2, b:14, carry:1, sum: 0
[SCB] a: 2, b:14, carry:1, sum: 0
 --> PASS!  2 + 14 = 16
[GEN] a:15, b:12, carry:x, sum: x
[DRV] a:15, b:12, carry:x, sum: x
[MON] a:15, b:12, carry:1, sum:11
[SCB] a:15, b:12, carry:1, sum:11
 --> PASS! 15 + 12 = 27
[GEN] a: 3, b:15, carry:x, sum: x
[DRV] a: 3, b:15, carry:x, sum: x
[MON] a: 3, b:15, carry:1, sum: 2
[SCB] a: 3, b:15, carry:1, sum: 2
 --> PASS!  3 + 15 = 18
[GEN] a:12, b: 6, carry:x, sum: x
[DRV] a:12, b: 6, carry:x, sum: x
[MON] a:12, b: 6, carry:1, sum: 2
[SCB] a:12, b: 6, carry:1, sum: 2
 --> PASS! 12 +  6 = 18
[GEN] a:14, b:11, carry:x, sum: x
[DRV] a:14, b:11, carry:x, sum: x
[MON] a:14, b:11, carry:1, sum: 9
[SCB] a:14, b:11, carry:1, sum: 9
 --> PASS! 14 + 11 = 25
[GEN] a: 2, b: 1, carry:x, sum: x
[DRV] a: 2, b: 1, carry:x, sum: x
[MON] a: 2, b: 1, carry:0, sum: 3
[SCB] a: 2, b: 1, carry:0, sum: 3
 --> PASS!  2 +  1 =  3
[GEN] a:11, b:14, carry:x, sum: x
[DRV] a:11, b:14, carry:x, sum: x
[MON] a:11, b:14, carry:1, sum: 9
[SCB] a:11, b:14, carry:1, sum: 9
 --> PASS! 11 + 14 = 25
[GEN] a: 7, b: 9, carry:x, sum: x
[DRV] a: 7, b: 9, carry:x, sum: x
[MON] a: 7, b: 9, carry:1, sum: 0
[SCB] a: 7, b: 9, carry:1, sum: 0
 --> PASS!  7 +  9 = 16
[GEN] a: 9, b: 9, carry:x, sum: x
[DRV] a: 9, b: 9, carry:x, sum: x
[MON] a: 9, b: 9, carry:1, sum: 2
[SCB] a: 9, b: 9, carry:1, sum: 2
 --> PASS!  9 +  9 = 18
[GEN] a:10, b: 4, carry:x, sum: x
[DRV] a:10, b: 4, carry:x, sum: x
[MON] a:10, b: 4, carry:0, sum:14
[SCB] a:10, b: 4, carry:0, sum:14
 --> PASS! 10 +  4 = 14
[GEN] a: 7, b: 2, carry:x, sum: x
[DRV] a: 7, b: 2, carry:x, sum: x
[MON] a: 7, b: 2, carry:0, sum: 9
[SCB] a: 7, b: 2, carry:0, sum: 9
 --> PASS!  7 +  2 =  9
[GEN] a:13, b: 1, carry:x, sum: x
[DRV] a:13, b: 1, carry:x, sum: x
[MON] a:13, b: 1, carry:0, sum:14
[SCB] a:13, b: 1, carry:0, sum:14
 --> PASS! 13 +  1 = 14
[GEN] a:11, b: 8, carry:x, sum: x
[DRV] a:11, b: 8, carry:x, sum: x
[MON] a:11, b: 8, carry:1, sum: 3
[SCB] a:11, b: 8, carry:1, sum: 3
 --> PASS! 11 +  8 = 19
[GEN] a: 5, b: 3, carry:x, sum: x
[DRV] a: 5, b: 3, carry:x, sum: x
[MON] a: 5, b: 3, carry:0, sum: 8
[SCB] a: 5, b: 3, carry:0, sum: 8
 --> PASS!  5 +  3 =  8
[GEN] a:10, b: 3, carry:x, sum: x
[DRV] a:10, b: 3, carry:x, sum: x
[MON] a:10, b: 3, carry:0, sum:13
[SCB] a:10, b: 3, carry:0, sum:13
 --> PASS! 10 +  3 = 13
[GEN] a: 4, b: 5, carry:x, sum: x
[DRV] a: 4, b: 5, carry:x, sum: x
[MON] a: 4, b: 5, carry:0, sum: 9
[SCB] a: 4, b: 5, carry:0, sum: 9
 --> PASS!  4 +  5 =  9
[GEN] a:11, b: 9, carry:x, sum: x
[DRV] a:11, b: 9, carry:x, sum: x
[MON] a:11, b: 9, carry:1, sum: 4
[SCB] a:11, b: 9, carry:1, sum: 4
 --> PASS! 11 +  9 = 20
[GEN] a: 8, b: 5, carry:x, sum: x
[DRV] a: 8, b: 5, carry:x, sum: x
[MON] a: 8, b: 5, carry:0, sum:13
[SCB] a: 8, b: 5, carry:0, sum:13
 --> PASS!  8 +  5 = 13
[GEN] a:12, b:12, carry:x, sum: x
[DRV] a:12, b:12, carry:x, sum: x
[MON] a:12, b:12, carry:1, sum: 8
[SCB] a:12, b:12, carry:1, sum: 8
 --> PASS! 12 + 12 = 24
[GEN] a:10, b: 7, carry:x, sum: x
[DRV] a:10, b: 7, carry:x, sum: x
[MON] a:10, b: 7, carry:1, sum: 1
[SCB] a:10, b: 7, carry:1, sum: 1
 --> PASS! 10 +  7 = 17
[GEN] a: 6, b: 3, carry:x, sum: x
[DRV] a: 6, b: 3, carry:x, sum: x
[MON] a: 6, b: 3, carry:0, sum: 9
[SCB] a: 6, b: 3, carry:0, sum: 9
 --> PASS!  6 +  3 =  9
[GEN] a:12, b: 2, carry:x, sum: x
[DRV] a:12, b: 2, carry:x, sum: x
[MON] a:12, b: 2, carry:0, sum:14
[SCB] a:12, b: 2, carry:0, sum:14
 --> PASS! 12 +  2 = 14
[GEN] a:15, b: 7, carry:x, sum: x
[DRV] a:15, b: 7, carry:x, sum: x
[MON] a:15, b: 7, carry:1, sum: 6
[SCB] a:15, b: 7, carry:1, sum: 6
 --> PASS! 15 +  7 = 22
[GEN] a:10, b: 5, carry:x, sum: x
[DRV] a:10, b: 5, carry:x, sum: x
[MON] a:10, b: 5, carry:0, sum:15
[SCB] a:10, b: 5, carry:0, sum:15
 --> PASS! 10 +  5 = 15
[GEN] a:10, b: 6, carry:x, sum: x
[DRV] a:10, b: 6, carry:x, sum: x
[MON] a:10, b: 6, carry:1, sum: 0
[SCB] a:10, b: 6, carry:1, sum: 0
 --> PASS! 10 +  6 = 16
[GEN] a: 8, b: 9, carry:x, sum: x
[DRV] a: 8, b: 9, carry:x, sum: x
[MON] a: 8, b: 9, carry:1, sum: 1
[SCB] a: 8, b: 9, carry:1, sum: 1
 --> PASS!  8 +  9 = 17
[GEN] a:13, b: 2, carry:x, sum: x
[DRV] a:13, b: 2, carry:x, sum: x
[MON] a:13, b: 2, carry:0, sum:15
[SCB] a:13, b: 2, carry:0, sum:15
 --> PASS! 13 +  2 = 15
[GEN] a:15, b: 7, carry:x, sum: x
[DRV] a:15, b: 7, carry:x, sum: x
[MON] a:15, b: 7, carry:1, sum: 6
[SCB] a:15, b: 7, carry:1, sum: 6
 --> PASS! 15 +  7 = 22
[GEN] a: 8, b: 7, carry:x, sum: x
[DRV] a: 8, b: 7, carry:x, sum: x
[MON] a: 8, b: 7, carry:0, sum:15
[SCB] a: 8, b: 7, carry:0, sum:15
 --> PASS!  8 +  7 = 15
[GEN] a: 1, b: 6, carry:x, sum: x
[DRV] a: 1, b: 6, carry:x, sum: x
[MON] a: 1, b: 6, carry:0, sum: 7
[SCB] a: 1, b: 6, carry:0, sum: 7
 --> PASS!  1 +  6 =  7
[GEN] a: 9, b: 0, carry:x, sum: x
[DRV] a: 9, b: 0, carry:x, sum: x
[MON] a: 9, b: 0, carry:0, sum: 9
[SCB] a: 9, b: 0, carry:0, sum: 9
 --> PASS!  9 +  0 =  9
[GEN] a:13, b: 1, carry:x, sum: x
[DRV] a:13, b: 1, carry:x, sum: x
[MON] a:13, b: 1, carry:0, sum:14
[SCB] a:13, b: 1, carry:0, sum:14
 --> PASS! 13 +  1 = 14
[GEN] a: 7, b:14, carry:x, sum: x
[DRV] a: 7, b:14, carry:x, sum: x
